Label,Id,Area,Type
Housing starters,0,8800,0
Housing assistedliving,1,1710,0
Housing students,2,1680,0
arcade,3,60,1
community center,4,500,1
pub,5,110,1
movie theatre,6,150,1
grocery,7,2000,2
tools,8,1500,2
restaurant,9,150,2
gym,10,80,2
parking,11,1680,3
workshops,12,100,3
coworking,13,500,3
library,14,1000,3
offices,15,140,3